%YAML 1.1
%TAG !u! tag:unity3d.com,2011:
--- !u!114 &11400000
MonoBehaviour:
  m_ObjectHideFlags: 0
  m_CorrespondingSourceObject: {fileID: 0}
  m_PrefabInstance: {fileID: 0}
  m_PrefabAsset: {fileID: 0}
  m_GameObject: {fileID: 0}
  m_Enabled: 1
  m_EditorHideFlags: 0
  m_Script: {fileID: 11500000, guid: c22ef40294aeb4ee8a21bfe8ef2814b9, type: 3}
  m_Name: Minigame-8-BruxoPirata
  m_EditorClassIdentifier: 
  witchName: O Bruxo Pirata
  _vumark: 8
  _resource: FindTheStone
  _voices:
    challenge: {fileID: 8300000, guid: bf9e6bc62d8d548879cd799649d4ee22, type: 3}
    success: {fileID: 8300000, guid: 9c0a5f25518584b17a32eb81e5e209b3, type: 3}
    failure: {fileID: 8300000, guid: 32a9cd312c4b542d0853f6cbe694cbc6, type: 3}
  _texts:
    challenge: "Haha... Vejo que o tesouro que voc\xEA busca \xE9 uma pedra m\xE1gica.
      Interessante... Pra um pirata conseguir seu tesouro, ele precisa ir atr\xE1s
      de conhecimento e vencer desafios! Estou disposto a te dar uma pedra, mas apenas
      se voc\xEA encontr\xE1-la dentro de um dos meus livros de feiti\xE7o!"
    success: "Bom trabalho, pirata! Voc\xEA j\xE1 pode continuar enfrentando os desafios
      do tabuleiro! Pegue sua pedra m\xE1gica e continue sua miss\xE3o!"
    failure: "Bom, um pirata nunca desiste! Voc\xEA n\xE3o conseguiu desta vez, mas
      talvez se saia melhor numa pr\xF3xima rodada..."
    special: ShuffleBook
  hasCamera: 1
  _color: {r: 0, g: 0, b: 0, a: 0}
  isFemale: 0
