%YAML 1.1
%TAG !u! tag:unity3d.com,2011:
--- !u!114 &11400000
MonoBehaviour:
  m_ObjectHideFlags: 0
  m_CorrespondingSourceObject: {fileID: 0}
  m_PrefabInstance: {fileID: 0}
  m_PrefabAsset: {fileID: 0}
  m_GameObject: {fileID: 0}
  m_Enabled: 1
  m_EditorHideFlags: 0
  m_Script: {fileID: 11500000, guid: c22ef40294aeb4ee8a21bfe8ef2814b9, type: 3}
  m_Name: Minigame-6-Engracadinho
  m_EditorClassIdentifier: 
  witchName: " O Engra\xE7adinho"
  _vumark: 6
  _resource: ColorGame
  _voices:
    challenge: {fileID: 8300000, guid: 575f12e6df240406a8d6ba3d05807793, type: 3}
    success: {fileID: 8300000, guid: afb4874acc25c4b46968a1a4fd52f58c, type: 3}
    failure: {fileID: 8300000, guid: e920cf2b6a95549e4ba3f9856888e206, type: 3}
  _texts:
    challenge: "Ainda falta um ingrediente, detetive! Preciso de um alimento de cor
      vermelha para finalizar a po\xE7\xE3o mais engra\xE7ada de meu n\xFAmero! Encontre
      um para mim e te darei a pedra."
    success: "Genial, detetive! Isso foi muito divertido! Agora, pegue sua pedra
      m\xE1gica que eu preciso ensaiar para o meu n\xFAmero de piadas."
    failure: "Voc\xEA demorou demais, detetive! Talvez conseguir\xE1 ser mais r\xE1pido
      na pr\xF3xima rodada... Enquanto isso, nada de pedra para voc\xEA!"
    special: "Sua miss\xE3o \xE9 encontrar um alimento da cor|vermelha"
  hasCamera: 1
  _color: {r: 1, g: 0.2732564, b: 0.11792451, a: 1}
