%YAML 1.1
%TAG !u! tag:unity3d.com,2011:
--- !u!162 &1
EditorUserSettings:
  m_ObjectHideFlags: 0
  serializedVersion: 4
  m_ConfigSettings:
    RecentlyUsedScenePath-0:
      value: 224247031146467e1d070f62242c501e56312065082d2b3f621a1e36ece52777e7f330f1d83f272c350dfc350b30126dbc1f0702e212
      flags: 0
    RecentlyUsedScenePath-1:
      value: 224247031146467e1d070f62242c501e56312065082d2b3f621a1e36ece52777e7f330f1d8373e353706ea310b701431fb1e10
      flags: 0
    RecentlyUsedScenePath-2:
      value: 224247031146467e1d070f62242c501e56312065082d2b3f621a1e36ece52777e7f330f1d8373e3b3001a1290a371526
      flags: 0
    RecentlyUsedScenePath-3:
      value: 224247031146467e1d070f62242c501e56312065082d2b3f621a1e36ece52777e7f330f1d8373e3b3001bd721130082beb
      flags: 0
    RecentlyUsedScenePath-4:
      value: 224247031146467e1d070f62242c501e56312065082d2b3f621a1e36ece52777e7f330f1d8373e3b3001bc721130082beb
      flags: 0
    RecentlyUsedScenePath-5:
      value: 22424703114646680e0b0227036c6b15050339180b292b35633c133af6f9
      flags: 0
    RecentlyUsedScenePath-6:
      value: 22424703114646680e0b0227036c0f5d33190c3835182939233d5326ece92021
      flags: 0
    RecentlyUsedScenePath-7:
      value: 22424703114646680e0b0227036c0e5d37253f2b212d68252320092a
      flags: 0
    RecentlyUsedScenePath-8:
      value: 22424703114646680e0b0227036c0d5d24121f3f202934172c241820acf53a31f6fe
      flags: 0
    RecentlyUsedScenePath-9:
      value: 22424703114646680e0b0227036c0c5d3a1216390b292b35633c133af6f9
      flags: 0
    vcSharedLogLevel:
      value: 0d5e400f0650
      flags: 0
  m_VCAutomaticAdd: 1
  m_VCDebugCom: 0
  m_VCDebugCmd: 0
  m_VCDebugOut: 0
  m_SemanticMergeMode: 2
  m_VCShowFailedCheckout: 1
  m_VCOverwriteFailedCheckoutAssets: 1
  m_VCProjectOverlayIcons: 1
  m_VCHierarchyOverlayIcons: 1
  m_VCOtherOverlayIcons: 1
  m_VCAllowAsyncUpdate: 0
